{
  "sections": {
    "breadcrumb": {
      "type": "breadcrumb",
      "settings": {
        "container": "container",
        "text_alignment": "center",
        "hide_current": false,
        "hide_on_mb": false
      }
    },
    "main": {
      "type": "main-product",
      "blocks": {
        "title": {
          "type": "title",
          "settings": {
          }
        },
        "59ffed88-2533-486a-9780-4c0f92de7909": {
          "type": "meta",
          "settings": {
            "show_collections": false,
            "show_sku": false,
            "show_vendor": true
          }
        },
        "price": {
          "type": "price",
          "settings": {
          }
        },
        "variant_picker": {
          "type": "variant_picker",
          "settings": {
            "size_title": "Size"
          }
        },
        "buy_buttons": {
          "type": "buy_buttons",
          "settings": {
            "show_quantity_selector": true,
            "show_atc_button": true,
            "show_dynamic_checkout": false
          }
        },
        "addons": {
          "type": "addons",
          "settings": {
            "show_atcp": false,
            "show_ask_a_question": false,
            "show_social": false
          }
        }
      },
      "block_order": [
        "title",
        "59ffed88-2533-486a-9780-4c0f92de7909",
        "price",
        "variant_picker",
        "buy_buttons",
        "addons"
      ],
      "settings": {
        "container": "container",
        "layout": "layout-4",
        "show_atwl": false,
        "show_nav_media_mobile": false,
        "show_pagination_mobile": true,
        "use_sticky_atc": false,
        "use_sticky_atc_on_mobile": false,
        "enable_dynamic_checkout": false,
        "sticky_atc_wishtlist": false,
        "sticky_atc_compare": false
      }
    },
    "product-details-tabs": {
      "type": "product-details-tabs",
      "blocks": {
        "description": {
          "type": "description",
          "settings": {
            "header": "Product description"
          }
        },
        "tab": {
          "type": "tab",
          "settings": {
            "header": "Shipping & Return",
            "content": "<p>Shipping cost is based on weight. Just add products to your cart and use the Shipping Calculator to see the shipping price.<\/p><p>We want you to be 100% satisfied with your purchase. Items can be returned or exchanged within 30 days of delivery.<\/p>",
            "content_page": ""
          }
        }
      },
      "block_order": [
        "description",
        "tab"
      ],
      "settings": {
        "container": "container",
        "bg_color": "",
        "default_open": true
      }
    },
    "product-recommendations": {
      "type": "product-recommendations",
      "disabled": true,
      "settings": {
        "container": "container",
        "heading": "You Might Also Like",
        "limit": 8,
        "columns": 4,
        "column_gap": 30,
        "enable_slider": true
      }
    },
    "recent-viewed-products": {
      "type": "recent-viewed-products",
      "disabled": true,
      "settings": {
        "heading": "Recently Viewed Products",
        "container": "container",
        "columns": 4,
        "column_gap": 30,
        "enable_slider": true
      }
    }
  },
  "order": [
    "breadcrumb",
    "main",
    "product-details-tabs",
    "product-recommendations",
    "recent-viewed-products"
  ]
}